\begin{tikzpicture}
	\tikzset{neuron/.style={circle, fill=white, draw=uablue!40, inner sep=0.25 em, thick}}
	\tikzset{activeneuron/.style={circle,  fill=white, draw=uablue, inner sep=0.25 em, thick}}
	\tikzset{connection/.style={-,thin, dashed, uagray50}}
%
	\foreach \x in {1,...,16}
		\foreach \y in {1,...,16}
			\node[neuron] (\x-\y) at (\x*0.4, \y*0.4) { };
%
	\node[activeneuron, right=8 em of 16-8](hidden){};
%
	\foreach \x in {1,...,4}
		\foreach \y in {13,...,16}
			\draw [connection] (\x-\y) -- (hidden);
%
	\foreach \x in {1,...,4}
		\foreach \y in {13,...,16}
			\node[activeneuron] (\x-\y) at (\x*0.4, \y*0.4) { };
%
	\node[above= 1.5 em of hidden]{\larger \larger hidden neuron};
	\node[above= 1 em of 8-16]{\larger \larger input};
\end{tikzpicture}