\begin{tikzpicture}
  \begin{axis}[
	  %ymode=log,
	  grid=both,
	  width=\linewidth,
	  height=20 em,
      xlabel={Training Samples},
      ylabel={Training Loss},
	  legend cell align=left,
      legend pos=north east,
	  legend style={font=\smaller \smaller},
      ymajorgrids=true,
	  y tick style={uablue50},
	  x tick style={uablue50},
      minor grid style={very thin, uagray10},
	  major grid style={uagray10},
	  axis line style={uablue50},
	  restrict x to domain=0:4000,
	  ymin=0.6,
      ymax=2.4,
	  xmin=0,
	  xmax=4000,
	 %xtick={2000, 2002, 2004, 2006, 2008, 2010, 2012, 2014},
	  enlarge y limits=true,
	  enlarge x limits=true,
    ]
%
	\addplot [mark size=0.1 em, mark=none, uabranchblue, line width=0.1 em] table [x=x, y=y, col sep=space] {Data/theoretical-background/sgd_momentum.dat};
	\addplot [mark size=0.1 em, mark=none, uablue50, line width=0.1 em] table [x=x, y=y, col sep=space] {Data/theoretical-background/sgd.dat};
	\addplot [mark size=0.1 em, mark=none, ualightblue, line width=0.1 em] table [x=x, y=y, col sep=space] {Data/theoretical-background/nesterov.dat};
	\addplot [mark size=0.1 em, mark=none, uablue35, line width=0.1 em] table [x=x, y=y, col sep=space] {Data/theoretical-background/adagrad.dat};
	\addplot [mark size=0.1 em, mark=none, uagray80, line width=0.1 em] table [x=x, y=y, col sep=space] {Data/theoretical-background/adadelta.dat};
%
    \legend{SGD, SGD+momentum, NAG, Adagrad, Adadelta}
  \end{axis}
\end{tikzpicture}
