
\begin{tikzpicture}
\pgfplotsset{
  compat=1.8,
  colormap={whitered}{color(0cm)=(uablue50); color(1cm)=(white)}
}
\pgfmathsetseed{512}
\pgfplotsset{
    jitter/.style={
        x filter/.code={\pgfmathparse{\pgfmathresult+rnd*#1-0.14}}
    },
    jitter/.default=0.1
}
	\begin{axis}[
			 width=32em,
			domain=-2:2,
			view={0}{90},
			axis background/.style={fill=white},
			set layers,
			axis line style={on layer=axis foreground},
			ymajorgrids=true,
			grid=both,
			y tick style={uablue50},
		  	x tick style={uablue50},
      		minor grid style={very thin, uagray10},
			major grid style={uagray10},
			axis line style={uablue50},
			 legend pos=south east,
			enlarge y limits=true,
			enlarge x limits=true,]
		\addplot3[contour gnuplot={number=16, labels=false}, thick] {x^2+2*y^2};
		\addplot[jitter=0.32, mark=*, mark size=0.1em, uagray80,domain={-2:0}, samples=32, thick]{0.5*x^2};
		\legend{Stochastic Gradient Descent}
	\end{axis}
\end{tikzpicture}