\begin{tikzpicture}
	\tikzset{neuron/.style={circle, fill=white, draw=uablue!40, inner sep=0.25 em, thick}}
	\tikzset{activeneuron/.style={circle,  fill=white, draw=uablue, inner sep=0.25 em, thick}}
	\tikzset{connection/.style={-, thin, dashed, uagray50}}
% Input
	\foreach \x in {1,...,16}
		\foreach \y in {1,...,16}
			\node[neuron] (\x-\y) at (\x*0.4, \y*0.4) { };
% Hidden layer
	\foreach \x in {1,...,12}
		\foreach \y in {1,...,12}
			\node[neuron] (h\x-\y) at (8 + \x*0.4, 0.8+ \y*0.4) { };
% Connections
	\foreach \x in {1,...,4}
		\foreach \y in {13,...,16}
			\draw[connection](h1-12) -- (\x-\y);
% Receptive field
	\foreach \x in {1,...,4}
		\foreach \y in {13,...,16}
			\node[activeneuron] (\x-\y) at (\x*0.4, \y*0.4) { };
% Hidden neuron
	\node[activeneuron](hiddenneuron) at (8+1*0.4, 0.8+12*0.4){};
%
	\node[above= 1 em of 8-16]{\larger \larger input};
	\node[above= 1 em of h7-12]{\larger \larger hidden layer};
\end{tikzpicture}