\begin{tikzpicture}
  \begin{axis}[
	  ymode=log,
	  grid=both,
	  width=\linewidth,
	  height=12 em,
      xlabel={Epochs},
      ylabel={Gradient Magnitude},
	  legend cell align=left,
      legend pos=north east,
	  legend style={font=\smaller \smaller},
      ymajorgrids=true,
	  y tick style={uablue50},
	  x tick style={uablue50},
      minor grid style={very thin, uagray10},
	  major grid style={uagray10},
	  axis line style={uablue50},
	  restrict x to domain=0:1000,
	  ymin=0.000001,
      ymax=1,
	  xmin=0,
	  xmax=400,
	 xtick={0, 100, 200, 300, 400},
	  enlarge y limits=true,
enlarge x limits=true,
    ]
%
	\addplot [smooth, mark size=0.25 em, mark=none, uablue, line width=0.1 em] table [x=x, y=y, col sep=space] {Data/theoretical-background/vanishing_4_1.dat};
	\addplot [smooth, mark size=0.25 em, mark=none, uabranchblue, line width=0.1 em,] table [x=x, y=y, col sep=space] {Data/theoretical-background/vanishing_4_2.dat};
	\addplot [smooth, mark size=0.25 em, mark=none, uablue35, line width=0.1 em,] table [x=x, y=y, col sep=space] {Data/theoretical-background/vanishing_4_3.dat};
	\addplot [smooth, mark size=0.25 em, mark=none, uablue20, line width=0.1 em,] table [x=x, y=y, col sep=space] {Data/theoretical-background/vanishing_4_4.dat};
%
    \legend{First Hidden Layer, Second Hidden Layer, Third Hidden Layer, Fourth Hidden Layer}
  \end{axis}
\end{tikzpicture}
