
\begin{tikzpicture}
\pgfplotsset{
  compat=1.8,
  colormap={whitered}{color(0cm)=(uablue50); color(1cm)=(white)}
}
	\begin{axis}[
			 width=32em,
			domain=-2:2,
			axis background/.style={fill=white},
			set layers,
			axis line style={on layer=axis foreground},
			ymajorgrids=true,
			grid=both,
			y tick style={uablue50},
		  	x tick style={uablue50},
      		minor grid style={very thin, uagray10},
			major grid style={uagray10},
			axis line style={uablue50},
			enlarge y limits=true,
			enlarge x limits=true,]
		\addplot3[surf] {x^2+2*y^2};
	\end{axis}
\end{tikzpicture}