x y
0.0976215832445888 0.0018847247507948204
1.3090166844160365 0.0013899834902190759
2.9242101526446618 0.0009137190344847995
4.539403620873273 0.0006285106949356024
6.154597089101884 0.0004542555848826198
8.173588924387644 0.00030915371667311354
10.596379126730568 0.00020738696256311195
13.019169329073478 0.000143193355115579
15.441959531416401 0.0001017650650202758
18.268548100816474 0.00007060398290192743
21.498935037273696 0.00004993625602395033
25.536918707845217 0.00003591819539832255
32.401490947816825 0.000026153551910592523
41.28505502307419 0.000022256239730904804
50.16861909833155 0.000021007913479050063
59.052183173588915 0.000020437051150760284
67.93574724884628 0.00002006512054126416
76.81931132410365 0.000019571160521552098
85.70287539936102 0.000019265470257635525
94.58643947461839 0.00001898945045656945
103.47000354987576 0.00001854628587023936
112.35356762513312 0.000018280569951138495
121.23713170039049 0.00001792435456436834
130.12069577564785 0.00001757508039453564
139.0042598509052 0.000017368791299763816
147.88782392616258 0.000016941209094356066
156.77138800141995 0.00001667659715816472
165.65495207667732 0.000016437668600050167
174.5385161519347 0.0000160330086285836
183.42208022719205 0.000015865620059146238
192.30564430244942 0.00001551569914425581
201.18920837770673 0.000015193414874824375
210.0727724529641 0.000015034791871514179
218.95633652822147 0.000014664667701367927
227.83990060347884 0.000014473539670703828
236.7234646787362 0.000014228792435201793
245.60702875399357 0.000013896729275820505
254.49059282925094 0.00001373361515979689
263.3741569045083 0.000013430716239770174
272.2577209797657 0.000013203603125405374
281.14128505502305 0.000013031517489752458
290.0248491302804 0.00001271070961706219
298.9084132055378 0.000012545047977335752
307.79197728079515 0.000012316742665285167
316.6755413560525 0.000012045093284684858
325.5591054313099 0.00001191933953625438
334.44266950656726 0.00001162591108761013
343.3262335818246 0.000011459344602458168
352.209797657082 0.000011295164544809977
361.09336173233936 0.000011002658177738757
369.97692580759673 0.000010873513482828818
378.8604898828541 0.000010661632079722176
387.74405395811146 0.000010453879399962692
396.62761803336883 0.000010317631554242454
400.00000000000000 0.00001008180337461319
